\relax 
\providecommand\hyper@newdestlabel[2]{}
\@writefile{toc}{\contentsline {chapter}{\numberline {1}Stochastic PoS Tagger}{1}{chapter.1}}
\@writefile{lof}{\addvspace {10\p@ }}
\@writefile{lot}{\addvspace {10\p@ }}
\@writefile{toc}{\contentsline {section}{\numberline {1.1}Consegna}{1}{section.1.1}}
\@writefile{toc}{\contentsline {section}{\numberline {1.2}Implementazione}{1}{section.1.2}}
\@writefile{toc}{\contentsline {section}{\numberline {1.3}Sperimentazione}{2}{section.1.3}}
\@writefile{toc}{\contentsline {subsection}{\numberline {1.3.1}Risultati}{3}{subsection.1.3.1}}
\@writefile{lot}{\contentsline {table}{\numberline {1.1}{\ignorespaces Risultati della sperimentazione usando il tagger Baseline.\relax }}{3}{table.1.1}}
\newlabel{tab:pos_results_1}{{1.1}{3}{Risultati della sperimentazione usando il tagger Baseline.\relax }{table.1.1}{}}
\@writefile{lot}{\contentsline {table}{\numberline {1.2}{\ignorespaces Risultati della sperimentazione usando il tagger Viterbi.\relax }}{4}{table.1.2}}
\newlabel{tab:pos_results_2}{{1.2}{4}{Risultati della sperimentazione usando il tagger Viterbi.\relax }{table.1.2}{}}
\@writefile{lot}{\contentsline {table}{\numberline {1.3}{\ignorespaces Le liste MNRT e MMC dei risultati pi\IeC {\`u} promettenti.\relax }}{4}{table.1.3}}
\newlabel{tab:pos_results_3}{{1.3}{4}{Le liste MNRT e MMC dei risultati più promettenti.\relax }{table.1.3}{}}
\@writefile{toc}{\contentsline {subsection}{\numberline {1.3.2}Valutazione dei risultati}{5}{subsection.1.3.2}}
\@writefile{toc}{\contentsline {paragraph}{Viterbi vs Baseline.}{5}{section*.2}}
\@writefile{toc}{\contentsline {paragraph}{L'importanza del tagset.}{5}{section*.3}}
\@writefile{toc}{\contentsline {paragraph}{In merito alla normalizzazione.}{5}{section*.4}}
\@writefile{toc}{\contentsline {paragraph}{In merito allo smoothing.}{5}{section*.5}}
\@writefile{toc}{\contentsline {paragraph}{Sugli errori pi\IeC {\`u} comuni.}{6}{section*.6}}
\@setckpt{ch1}{
\setcounter{page}{7}
\setcounter{equation}{0}
\setcounter{enumi}{3}
\setcounter{enumii}{0}
\setcounter{enumiii}{0}
\setcounter{enumiv}{0}
\setcounter{footnote}{4}
\setcounter{mpfootnote}{0}
\setcounter{part}{0}
\setcounter{chapter}{1}
\setcounter{section}{3}
\setcounter{subsection}{2}
\setcounter{subsubsection}{0}
\setcounter{paragraph}{0}
\setcounter{subparagraph}{0}
\setcounter{figure}{0}
\setcounter{table}{3}
\setcounter{lstnumber}{1}
\setcounter{Item}{3}
\setcounter{Hfootnote}{4}
\setcounter{bookmark@seq@number}{6}
\setcounter{AM@survey}{0}
\setcounter{parentequation}{0}
\setcounter{nlinenum}{0}
\setcounter{ContinuedFloat}{0}
\setcounter{defn}{0}
\setcounter{thm}{0}
\setcounter{rem}{0}
\setcounter{lstlisting}{0}
\setcounter{section@level}{4}
}
