\relax 
\providecommand\hyper@newdestlabel[2]{}
\@writefile{toc}{\contentsline {chapter}{\numberline {2}Parsing di PCFG e algoritmo CKY probabilistico}{7}{chapter.2}}
\@writefile{lof}{\addvspace {10\p@ }}
\@writefile{lot}{\addvspace {10\p@ }}
\@writefile{toc}{\contentsline {section}{\numberline {2.1}Consegna (parte A)}{7}{section.2.1}}
\@writefile{toc}{\contentsline {section}{\numberline {2.2}Implementazione (parte A)}{7}{section.2.2}}
\@writefile{lof}{\contentsline {figure}{\numberline {2.1}{\ignorespaces Schema dei moduli e del workflow del sistema.\relax }}{8}{figure.caption.7}}
\providecommand*\caption@xref[2]{\@setref\relax\@undefined{#1}}
\newlabel{fig:cky_schema}{{2.1}{8}{Schema dei moduli e del workflow del sistema.\relax }{figure.caption.7}{}}
\@writefile{toc}{\contentsline {subsection}{\numberline {2.2.1}Pulizia del corpus}{8}{subsection.2.2.1}}
\@writefile{toc}{\contentsline {subsection}{\numberline {2.2.2}Problematiche riscontrate}{9}{subsection.2.2.2}}
\@writefile{toc}{\contentsline {paragraph}{Regole non in Chomsky Normal Form.}{9}{section*.8}}
\newlabel{listing:LABEL}{{2.1}{9}{Regole non in CNF prodotte da NTLK}{lstlisting.2.1}{}}
\@writefile{lol}{\contentsline {lstlisting}{\numberline {2.1}Regole non in CNF prodotte da NTLK.}{9}{lstlisting.2.1}}
\@writefile{toc}{\contentsline {paragraph}{La complessit\IeC {\`a}.}{9}{section*.9}}
\@writefile{toc}{\contentsline {subsection}{\numberline {2.2.3}Lo smoothing}{10}{subsection.2.2.3}}
\@writefile{toc}{\contentsline {section}{\numberline {2.3}Sperimentazione (parte A)}{10}{section.2.3}}
\@writefile{toc}{\contentsline {subsection}{\numberline {2.3.1}Risultati}{10}{subsection.2.3.1}}
\@writefile{toc}{\contentsline {subsection}{\numberline {2.3.2}Valutazione dei risultati}{11}{subsection.2.3.2}}
\@writefile{toc}{\contentsline {section}{\numberline {2.4}PoS Tagger + CKY (parte B)}{11}{section.2.4}}
\@writefile{toc}{\contentsline {subsection}{\numberline {2.4.1}Modifiche apportate}{11}{subsection.2.4.1}}
\@writefile{toc}{\contentsline {subsection}{\numberline {2.4.2}Risultati}{12}{subsection.2.4.2}}
\@writefile{toc}{\contentsline {subsubsection}{Valutazione dei risultati}{12}{section*.10}}
\@setckpt{ch2}{
\setcounter{page}{13}
\setcounter{equation}{0}
\setcounter{enumi}{2}
\setcounter{enumii}{0}
\setcounter{enumiii}{0}
\setcounter{enumiv}{0}
\setcounter{footnote}{5}
\setcounter{mpfootnote}{0}
\setcounter{part}{0}
\setcounter{chapter}{2}
\setcounter{section}{4}
\setcounter{subsection}{2}
\setcounter{subsubsection}{0}
\setcounter{paragraph}{0}
\setcounter{subparagraph}{0}
\setcounter{figure}{1}
\setcounter{table}{0}
\setcounter{lstnumber}{7}
\setcounter{Item}{10}
\setcounter{Hfootnote}{9}
\setcounter{bookmark@seq@number}{18}
\setcounter{AM@survey}{0}
\setcounter{parentequation}{0}
\setcounter{nlinenum}{0}
\setcounter{ContinuedFloat}{0}
\setcounter{defn}{0}
\setcounter{thm}{0}
\setcounter{rem}{0}
\setcounter{lstlisting}{1}
\setcounter{section@level}{3}
}
