\relax 
\providecommand\hyper@newdestlabel[2]{}
\@writefile{toc}{\contentsline {chapter}{\numberline {3}Sistema di Transfer Machine Translation}{13}{chapter.3}}
\@writefile{lof}{\addvspace {10\p@ }}
\@writefile{lot}{\addvspace {10\p@ }}
\@writefile{toc}{\contentsline {section}{\numberline {3.1}Consegna}{13}{section.3.1}}
\@writefile{toc}{\contentsline {section}{\numberline {3.2}Implementazione}{13}{section.3.2}}
\@writefile{toc}{\contentsline {subsection}{\numberline {3.2.1}Le regole di traduzione}{13}{subsection.3.2.1}}
\@writefile{toc}{\contentsline {section}{\numberline {3.3}Sperimentazione}{14}{section.3.3}}
\@writefile{toc}{\contentsline {subsection}{\numberline {3.3.1}Risultati}{14}{subsection.3.3.1}}
\@writefile{toc}{\contentsline {subsubsection}{Valutazione dei risultati}{14}{section*.11}}
\@setckpt{ch3}{
\setcounter{page}{15}
\setcounter{equation}{0}
\setcounter{enumi}{2}
\setcounter{enumii}{0}
\setcounter{enumiii}{0}
\setcounter{enumiv}{0}
\setcounter{footnote}{1}
\setcounter{mpfootnote}{0}
\setcounter{part}{0}
\setcounter{chapter}{3}
\setcounter{section}{3}
\setcounter{subsection}{1}
\setcounter{subsubsection}{0}
\setcounter{paragraph}{0}
\setcounter{subparagraph}{0}
\setcounter{figure}{0}
\setcounter{table}{0}
\setcounter{lstnumber}{7}
\setcounter{Item}{12}
\setcounter{Hfootnote}{10}
\setcounter{bookmark@seq@number}{24}
\setcounter{AM@survey}{0}
\setcounter{parentequation}{0}
\setcounter{nlinenum}{0}
\setcounter{ContinuedFloat}{0}
\setcounter{defn}{0}
\setcounter{thm}{0}
\setcounter{rem}{0}
\setcounter{lstlisting}{0}
\setcounter{section@level}{3}
}
