\BOOKMARK [0][-]{chapter.1}{Stochastic PoS Tagger}{}% 1
\BOOKMARK [1][-]{section.1.1}{Consegna}{chapter.1}% 2
\BOOKMARK [1][-]{section.1.2}{Implementazione}{chapter.1}% 3
\BOOKMARK [1][-]{section.1.3}{Sperimentazione}{chapter.1}% 4
\BOOKMARK [2][-]{subsection.1.3.1}{Risultati}{section.1.3}% 5
\BOOKMARK [2][-]{subsection.1.3.2}{Valutazione dei risultati}{section.1.3}% 6
\BOOKMARK [0][-]{chapter.2}{Parsing di PCFG e algoritmo CKY probabilistico}{}% 7
\BOOKMARK [1][-]{section.2.1}{Consegna \(parte A\)}{chapter.2}% 8
\BOOKMARK [1][-]{section.2.2}{Implementazione \(parte A\)}{chapter.2}% 9
\BOOKMARK [2][-]{subsection.2.2.1}{Pulizia del corpus}{section.2.2}% 10
\BOOKMARK [2][-]{subsection.2.2.2}{Problematiche riscontrate}{section.2.2}% 11
\BOOKMARK [2][-]{subsection.2.2.3}{Lo smoothing}{section.2.2}% 12
\BOOKMARK [1][-]{section.2.3}{Sperimentazione \(parte A\)}{chapter.2}% 13
\BOOKMARK [2][-]{subsection.2.3.1}{Risultati}{section.2.3}% 14
\BOOKMARK [2][-]{subsection.2.3.2}{Valutazione dei risultati}{section.2.3}% 15
\BOOKMARK [1][-]{section.2.4}{PoS Tagger + CKY \(parte B\)}{chapter.2}% 16
\BOOKMARK [2][-]{subsection.2.4.1}{Modifiche apportate}{section.2.4}% 17
\BOOKMARK [2][-]{subsection.2.4.2}{Risultati}{section.2.4}% 18
\BOOKMARK [0][-]{chapter.3}{Sistema di Transfer Machine Translation}{}% 19
\BOOKMARK [1][-]{section.3.1}{Consegna}{chapter.3}% 20
\BOOKMARK [1][-]{section.3.2}{Implementazione}{chapter.3}% 21
\BOOKMARK [2][-]{subsection.3.2.1}{Le regole di traduzione}{section.3.2}% 22
\BOOKMARK [1][-]{section.3.3}{Sperimentazione}{chapter.3}% 23
\BOOKMARK [2][-]{subsection.3.3.1}{Risultati}{section.3.3}% 24
